module simple-http-app-go

go 1.21.4

require (
	github.com/gin-gonic/gin v1.9.1
	gitlab.eclipse.org/eclipse/xfsc/personal-credential-manager-cloud/plugins/core v0.0.0-20240325120150-73cc7824f903
)

require (
	github.com/Nerzal/gocloak/v13 v13.9.0 // indirect
	github.com/ReneKroon/ttlcache v1.7.0 // indirect
	github.com/bytedance/sonic v1.10.2 // indirect
	github.com/chenzhuoyu/base64x v0.0.0-20230717121745-296ad89f973d // indirect
	github.com/chenzhuoyu/iasm v0.9.1 // indirect
	github.com/fsnotify/fsnotify v1.7.0 // indirect
	github.com/gabriel-vasile/mimetype v1.4.3 // indirect
	github.com/gin-contrib/sse v0.1.0 // indirect
	github.com/go-logr/logr v1.4.1 // indirect
	github.com/go-logr/zapr v1.3.0 // indirect
	github.com/go-playground/locales v0.14.1 // indirect
	github.com/go-playground/universal-translator v0.18.1 // indirect
	github.com/go-playground/validator/v10 v10.16.0 // indirect
	github.com/go-resty/resty/v2 v2.7.0 // indirect
	github.com/goccy/go-json v0.10.2 // indirect
	github.com/golang-jwt/jwt/v5 v5.0.0 // indirect
	github.com/hashicorp/hcl v1.0.0 // indirect
	github.com/json-iterator/go v1.1.12 // indirect
	github.com/kelseyhightower/envconfig v1.4.0 // indirect
	github.com/klauspost/cpuid/v2 v2.2.6 // indirect
	github.com/leodido/go-urn v1.2.4 // indirect
	github.com/magiconair/properties v1.8.7 // indirect
	github.com/mattn/go-isatty v0.0.20 // indirect
	github.com/mitchellh/mapstructure v1.5.0 // indirect
	github.com/modern-go/concurrent v0.0.0-20180306012644-bacd9c7ef1dd // indirect
	github.com/modern-go/reflect2 v1.0.2 // indirect
	github.com/opentracing/opentracing-go v1.2.0 // indirect
	github.com/pelletier/go-toml/v2 v2.1.1 // indirect
	github.com/pkg/errors v0.9.1 // indirect
	github.com/sagikazarmark/locafero v0.4.0 // indirect
	github.com/sagikazarmark/slog-shim v0.1.0 // indirect
	github.com/segmentio/ksuid v1.0.4 // indirect
	github.com/sourcegraph/conc v0.3.0 // indirect
	github.com/spf13/afero v1.11.0 // indirect
	github.com/spf13/cast v1.6.0 // indirect
	github.com/spf13/pflag v1.0.5 // indirect
	github.com/spf13/viper v1.18.2 // indirect
	github.com/subosito/gotenv v1.6.0 // indirect
	github.com/twitchyliquid64/golang-asm v0.15.1 // indirect
	github.com/ugorji/go/codec v1.2.12 // indirect
	gitlab.eclipse.org/eclipse/xfsc/libraries/microservice/core v0.0.0-20240116092736-449df81aa64d // indirect
	go.uber.org/multierr v1.11.0 // indirect
	go.uber.org/zap v1.26.0 // indirect
	golang.org/x/arch v0.7.0 // indirect
	golang.org/x/crypto v0.18.0 // indirect
	golang.org/x/exp v0.0.0-20240103183307-be819d1f06fc // indirect
	golang.org/x/net v0.20.0 // indirect
	golang.org/x/sys v0.16.0 // indirect
	golang.org/x/text v0.14.0 // indirect
	google.golang.org/protobuf v1.32.0 // indirect
	gopkg.in/ini.v1 v1.67.0 // indirect
	gopkg.in/yaml.v3 v3.0.1 // indirect
)
